*** Begin of the Trace***

Adjacency Matrix:
           0     1     2     3     4     5     6     7     8     9    10    11
     0     -     -     -     -     -     -     1     1     -     -     -     -
     1     -     -     -     -     -     -     -     -     -     1     -     -
     2     -     -     -     -     -     -     -     -     -     -     -     1
     3     -     -     -     -     -     -     -     -     -     -     -     1
     4     -     1     -     -     -     1     -     -     -     -     -     -
     5     -     -     -     -     -     -     -     -     1     -     -     -
     6     -     -     -     1     -     -     -     -     -     -     1     -
     7     -     -     1     -     -     -     -     -     1     -     -     -
     8     -     -     -     -     -     -     -     -     -     1     -     -
     9     -     -     -     -     1     -     -     -     -     -     -     -
    10     -     1     -     -     -     -     -     -     -     -     -     -
    11     -     -     -     -     -     -     -     -     -     -     -     -


Values Matrix:
           0     1     2     3     4     5     6     7     8     9    10    11
     0     -     -     -     -     -     -     0     0     -     -     -     -
     1     -     -     -     -     -     -     -     -     -     1     -     -
     2     -     -     -     -     -     -     -     -     -     -     -     2
     3     -     -     -     -     -     -     -     -     -     -     -     3
     4     -     4     -     -     -     4     -     -     -     -     -     -
     5     -     -     -     -     -     -     -     -     5     -     -     -
     6     -     -     -     6     -     -     -     -     -     -     6     -
     7     -     -     7     -     -     -     -     -     7     -     -     -
     8     -     -     -     -     -     -     -     -     -     8     -     -
     9     -     -     -     -     9     -     -     -     -     -     -     -
    10     -    10     -     -     -     -     -     -     -     -     -     -
    11     -     -     -     -     -     -     -     -     -     -     -     -




Looking if the graph is cyclic using adjacency matrix


Line 11 is empty
So the column 11 will be deleted

Step 1 Matrix:
           0     1     2     3     4     5     6     7     8     9    10    11
     0     -     -     -     -     -     -     1     1     -     -     -     #
     1     -     -     -     -     -     -     -     -     -     1     -     #
     2     -     -     -     -     -     -     -     -     -     -     -     #
     3     -     -     -     -     -     -     -     -     -     -     -     #
     4     -     1     -     -     -     1     -     -     -     -     -     #
     5     -     -     -     -     -     -     -     -     1     -     -     #
     6     -     -     -     1     -     -     -     -     -     -     1     #
     7     -     -     1     -     -     -     -     -     1     -     -     #
     8     -     -     -     -     -     -     -     -     -     1     -     #
     9     -     -     -     -     1     -     -     -     -     -     -     #
    10     -     1     -     -     -     -     -     -     -     -     -     #
    11     #     #     #     #     #     #     #     #     #     #     #     #
Line 2 is empty
So the column 2 will be deleted

Step 2 Matrix:
           0     1     2     3     4     5     6     7     8     9    10    11
     0     -     -     #     -     -     -     1     1     -     -     -     #
     1     -     -     #     -     -     -     -     -     -     1     -     #
     2     #     #     #     #     #     #     #     #     #     #     #     #
     3     -     -     #     -     -     -     -     -     -     -     -     #
     4     -     1     #     -     -     1     -     -     -     -     -     #
     5     -     -     #     -     -     -     -     -     1     -     -     #
     6     -     -     #     1     -     -     -     -     -     -     1     #
     7     -     -     #     -     -     -     -     -     1     -     -     #
     8     -     -     #     -     -     -     -     -     -     1     -     #
     9     -     -     #     -     1     -     -     -     -     -     -     #
    10     -     1     #     -     -     -     -     -     -     -     -     #
    11     #     #     #     #     #     #     #     #     #     #     #     #
Line 3 is empty
So the column 3 will be deleted

Step 3 Matrix:
           0     1     2     3     4     5     6     7     8     9    10    11
     0     -     -     #     #     -     -     1     1     -     -     -     #
     1     -     -     #     #     -     -     -     -     -     1     -     #
     2     #     #     #     #     #     #     #     #     #     #     #     #
     3     #     #     #     #     #     #     #     #     #     #     #     #
     4     -     1     #     #     -     1     -     -     -     -     -     #
     5     -     -     #     #     -     -     -     -     1     -     -     #
     6     -     -     #     #     -     -     -     -     -     -     1     #
     7     -     -     #     #     -     -     -     -     1     -     -     #
     8     -     -     #     #     -     -     -     -     -     1     -     #
     9     -     -     #     #     1     -     -     -     -     -     -     #
    10     -     1     #     #     -     -     -     -     -     -     -     #
    11     #     #     #     #     #     #     #     #     #     #     #     #

The Graph is cyclic, So we can't compute the rank the vertices


--> Let's check if the Scheduling is available 
The Graph is unfortunately cyclic


We can't perform the Scheduling